[
    {
        "name": "e57_scan_names_check",
        "enabled": true
    },
    {
        "name": "e57_scan_size_check'",
        "enabled": true
    },
    {
        "name": "e57_nan_points_check",
        "enabled": true
    },
    {
        "name": "e57_images_check",
        "enabled": true
    }
]
